GP_6306_CaseStudy2
…
## # A tibble: 6 x 2
##   WorkStatus WorkStatus_Count
##       <fctr>            <int>
## 1                          25
## 2  full-time             2190
## 3  part-time              452
## 4    retired              162
## 5    student              780
## 6 unemployed              241

4c Occupation

df.procrastination %>% select(Occupation) %>% group_by(Occupation) %>% dplyr::summarise(Occupation_Count = n())

## # A tibble: 380 x 2
##         Occupation Occupation_Count
##             <fctr>            <int>
##  1                             1947
##  2      Accountant                2
##  3   acupuncturist                1
##  4    admin assist                2
##  5  anthropologist                1
##  6       Assistant                1
##  7      bookseller                1
##  8  Communications                2
##  9      consultant               12
## 10        designer                2
## # ... with 370 more rows

4d. Give the counts (again, pretty table) of how many participants per country in descending order.

df.procrastination %>% select(Country) %>% group_by(Country) %>% 
  dplyr::summarise(Participant_Count = n()) %>% 
  plyr::arrange(desc(Participant_Count))

## # A tibble: 81 x 2
##           Country Participant_Count
##            <fctr>             <int>
##  1  United States              2790
##  2         Canada               244
##  3 United Kingdom               177
##  4      Australia                99
##  5          India                78
##  6          Italy                62
##  7        Germany                36
##  8         Brazil                20
##  9        Ireland                19
## 10    Netherlands                18
## # ... with 71 more rows
…
